module gitlab.com/zedge/secret-replication-controller

require (
	contrib.go.opencensus.io/exporter/ocagent v0.4.9 // indirect
	github.com/Azure/go-autorest v11.5.2+incompatible // indirect
	github.com/appscode/jsonpatch v0.0.0-20190108182946-7c0e3b262f30 // indirect
	github.com/coreos/prometheus-operator v0.26.0 // indirect
	github.com/dgrijalva/jwt-go v3.2.0+incompatible // indirect
	github.com/emicklei/go-restful v2.8.1+incompatible // indirect
	github.com/go-logr/logr v0.1.0 // indirect
	github.com/go-logr/zapr v0.1.0 // indirect
	github.com/go-openapi/spec v0.18.0
	github.com/golang/groupcache v0.0.0-20180924190550-6f2cf27854a4 // indirect
	github.com/golang/mock v1.2.0 // indirect
	github.com/google/btree v0.0.0-20180813153112-4030bb1f1f0c // indirect
	github.com/google/uuid v1.0.0 // indirect
	github.com/googleapis/gnostic v0.2.0 // indirect
	github.com/gophercloud/gophercloud v0.0.0-20190318015731-ff9851476e98 // indirect
	github.com/gregjones/httpcache v0.0.0-20180305231024-9cad4c3443a7 // indirect
	github.com/grpc-ecosystem/grpc-gateway v1.8.5 // indirect
	github.com/imdario/mergo v0.3.6 // indirect
	github.com/operator-framework/operator-sdk v0.8.1-0.20190603214726-49ec1963a0ce
	github.com/pborman/uuid v0.0.0-20180906182336-adf5a7427709 // indirect
	github.com/peterbourgon/diskv v2.0.1+incompatible // indirect
	github.com/spf13/pflag v1.0.3
	github.com/stretchr/testify v1.3.0
	go.opencensus.io v0.19.2 // indirect
	go.uber.org/atomic v1.3.2 // indirect
	go.uber.org/multierr v1.1.0 // indirect
	go.uber.org/zap v1.9.1 // indirect
	golang.org/x/time v0.0.0-20180412165947-fbb02b2291d2 // indirect
	k8s.io/api v0.0.0-20190222213804-5cb15d344471
	k8s.io/apimachinery v0.0.0-20190221213512-86fb29eff628
	k8s.io/client-go v2.0.0-alpha.0.0.20181126152608-d082d5923d3c+incompatible
	k8s.io/code-generator v0.0.0-20180823001027-3dcf91f64f63
	k8s.io/gengo v0.0.0-20190128074634-0689ccc1d7d6
	k8s.io/kube-openapi v0.0.0-20180711000925-0cf8f7e6ed1d
	sigs.k8s.io/controller-runtime v0.1.10
	sigs.k8s.io/controller-tools v0.1.10
	sigs.k8s.io/testing_frameworks v0.1.0 // indirect
)

// Pinned to kubernetes-1.13.1
replace (
	k8s.io/api => k8s.io/api v0.0.0-20181213150558-05914d821849
	k8s.io/apiextensions-apiserver => k8s.io/apiextensions-apiserver v0.0.0-20181213153335-0fe22c71c476
	k8s.io/apimachinery => k8s.io/apimachinery v0.0.0-20181127025237-2b1284ed4c93
	k8s.io/client-go => k8s.io/client-go v0.0.0-20181213151034-8d9ed539ba31
)

replace (
	github.com/coreos/prometheus-operator => github.com/coreos/prometheus-operator v0.29.0
	github.com/operator-framework/operator-sdk => github.com/operator-framework/operator-sdk v0.8.1
	k8s.io/code-generator => k8s.io/code-generator v0.0.0-20181117043124-c2090bec4d9b
	k8s.io/kube-openapi => k8s.io/kube-openapi v0.0.0-20180711000925-0cf8f7e6ed1d
	sigs.k8s.io/controller-runtime => sigs.k8s.io/controller-runtime v0.1.10
	sigs.k8s.io/controller-tools => sigs.k8s.io/controller-tools v0.1.11-0.20190411181648-9d55346c2bde
)
